<svg xmlns="http://www.w3.org/2000/svg" viewBox="0 0 81 60">
  <defs>
    <style>
      .cls-1 {
        fill: #8b91dd;
      }
    </style>
  </defs>
  <path id="Shape_2" data-name="Shape 2" class="cls-1" d="M1431.091,1129.8v-6.484h-43.282v6.484a1.187,1.187,0,1,1-2.373,0v-3.923h-12.845v3.923a1.187,1.187,0,1,1-2.373,0v-6.484h-10.309v6.484a1.186,1.186,0,1,1-2.372,0v-11.6h-1.35a1.2,1.2,0,0,1,0-2.4h9.7a5.033,5.033,0,0,1-.744-2.642v-11.184a5.052,5.052,0,0,1,3.62-4.844l4.279-1.234a1.416,1.416,0,0,0,.135-.05,33,33,0,0,1-4.747-1.3,2.471,2.471,0,0,1-1.48-3.15,47.285,47.285,0,0,0,2-10.21c.4-5.806,4.729-10.184,10.06-10.184s9.657,4.378,10.06,10.184a47.325,47.325,0,0,0,2,10.21,2.471,2.471,0,0,1-1.48,3.15,32.871,32.871,0,0,1-4.747,1.3,1.188,1.188,0,0,0,.134.05l4.279,1.235a5.052,5.052,0,0,1,3.62,4.843v11.185a5.045,5.045,0,0,1-.743,2.642h5.984c0-.028,0-.055,0-.082v-10.241a2.469,2.469,0,0,1,2.455-2.478h.081v-1.026a5.052,5.052,0,0,1,3.62-4.844l4.279-1.235a1.366,1.366,0,0,0,.979-1.31v-1.079a9.37,9.37,0,0,1-3.8-7.553V1084l-.608-1.226a6.4,6.4,0,0,1-.661-2.826v-.071a7.572,7.572,0,0,1,7.528-7.6H1423.4a1.192,1.192,0,0,1,1.187,1.2v6.169a7.7,7.7,0,0,1-.795,3.4l-.474.956v2.278a8.849,8.849,0,0,1-2.671,6.372,9.009,9.009,0,0,1-1.134.939v1a1.365,1.365,0,0,0,.979,1.31l4.279,1.235a5.052,5.052,0,0,1,3.62,4.843v11.185a5.037,5.037,0,0,1-.744,2.642h7.167a1.2,1.2,0,0,1,0,2.395h-1.35v11.6a1.186,1.186,0,1,1-2.372,0Zm-58.5-23.042v16.724h12.845v-16.724a1.357,1.357,0,0,0-1.35-1.363h-10.145A1.358,1.358,0,0,0,1372.591,1106.761Zm15.218,14.163h43.281V1118.2h-43.281Zm-27.9,0h10.309V1118.2h-10.309Zm58.336-5.2c0,.027,0,.054,0,.082h5.158a2.633,2.633,0,0,0,2.618-2.642v-11.185a2.647,2.647,0,0,0-1.9-2.54l-4.279-1.235a3.679,3.679,0,0,1-1.025-.48l-.763.77a4.957,4.957,0,0,1-7.058,0l-.763-.77a3.684,3.684,0,0,1-1.026.48l-4.279,1.235a2.649,2.649,0,0,0-1.9,2.54V1103h12.764a2.468,2.468,0,0,1,2.454,2.478v5.2h2.7V1104.2a1.187,1.187,0,1,1,2.373,0v7.681a1.193,1.193,0,0,1-1.187,1.2h-3.886Zm-17.754-10.241v10.241a.082.082,0,0,0,.082.082h15.218a.082.082,0,0,0,.082-.082v-10.241a.082.082,0,0,0-.082-.083h-15.218A.082.082,0,0,0,1400.491,1105.481Zm-16.4-2.478a3.745,3.745,0,0,1,3.723,3.757v9.043h.081a2.633,2.633,0,0,0,2.618-2.642v-11.184a2.65,2.65,0,0,0-1.9-2.541l-4.279-1.234a3.745,3.745,0,0,1-2.3-1.927,28.967,28.967,0,0,1-3.018.162,28.661,28.661,0,0,1-3.012-.162,3.707,3.707,0,0,1-2.306,1.926l-4.278,1.235a2.648,2.648,0,0,0-1.9,2.54v11.185a2.633,2.633,0,0,0,2.618,2.642h.082v-9.043a3.744,3.744,0,0,1,3.722-3.757Zm27.611-7.188.974.983a2.6,2.6,0,0,0,3.7,0l.973-.983a3.751,3.751,0,0,1-.2-1.058,8.746,8.746,0,0,1-2.621.4c-.091,0-.182,0-.274,0a8.244,8.244,0,0,1-2.354-.421A3.75,3.75,0,0,1,1411.7,1095.815Zm-37.975-20.126a9.112,9.112,0,0,0-2.4,5.663,50.2,50.2,0,0,1-2.138,10.857.049.049,0,0,0,0,.04.082.082,0,0,0,.044.04,28.173,28.173,0,0,0,19.567,0,.08.08,0,0,0,.043-.04.045.045,0,0,0,0-.04,50.281,50.281,0,0,1-2.137-10.857,9.112,9.112,0,0,0-2.4-5.663,7.25,7.25,0,0,0-10.581,0Zm33.109,4.189v.071a3.964,3.964,0,0,0,.41,1.754l.732,1.48a1.2,1.2,0,0,1,.126.536v2.238a6.675,6.675,0,0,0,6.224,6.8,6.351,6.351,0,0,0,4.671-1.826,6.463,6.463,0,0,0,1.95-4.653v-2.56a1.209,1.209,0,0,1,.125-.536l.6-1.209a5.278,5.278,0,0,0,.544-2.327v-4.972h-10.227A5.184,5.184,0,0,0,1406.832,1079.879Zm.138,30.7a1.19,1.19,0,1,1,1.19,1.2A1.2,1.2,0,0,1,1406.97,1110.58Zm10.827-28.351c-1.876-.946-5.746-1.153-7.078-1.153a1.2,1.2,0,0,1,0-2.4c.218,0,5.384.016,8.14,1.407a1.2,1.2,0,0,1,.53,1.607,1.186,1.186,0,0,1-1.062.661A1.167,1.167,0,0,1,1417.8,1082.229Z" transform="translate(-1355 -1071)"/>
</svg>
