<svg xmlns="http://www.w3.org/2000/svg" viewBox="0 0 49.997 62.989">
  <defs>
    <style>
      .cls-1 {
        fill: #8b91dd;
      }
    </style>
  </defs>
  <path id="Forma_3" data-name="Forma 3" class="cls-1" d="M522.237,1299.9a3.491,3.491,0,1,0-3.175.005c-3.8,31.32-14.987,42.876-15.1,42.994a1.216,1.216,0,0,0,0,1.728,1.236,1.236,0,0,0,1.742,0,33.1,33.1,0,0,0,4.71-6.657,1.2,1.2,0,0,0,.422.079h19.818a31.847,31.847,0,0,0,4.932,6.58,1.239,1.239,0,0,0,1.743,0,1.218,1.218,0,0,0,0-1.731C527.3,1332.928,523.357,1308.619,522.237,1299.9Zm-1.579,6.347a139.218,139.218,0,0,0,3.706,16.478h-7.514A120.213,120.213,0,0,0,520.658,1306.246ZM511.7,1335.6a77.97,77.97,0,0,0,4.358-10.426h8.9a1.306,1.306,0,0,0,.157-.016,72.674,72.674,0,0,0,4.209,10.442Zm15.376-34.07v-.816a4.66,4.66,0,1,0,0-9.32v-.816a5.476,5.476,0,1,1,0,10.953Zm2.507-14.425v-.816a9.936,9.936,0,1,1,0,19.873v-.816a9.12,9.12,0,1,0,0-18.24ZM546,1296.325a14.391,14.391,0,0,1-14.419,14.329v-.816a13.513,13.513,0,1,0,0-27.025V1282A14.39,14.39,0,0,1,546,1296.325Zm-35.76-.171a4.681,4.681,0,0,0,4.689,4.661v.816a5.476,5.476,0,1,1,0-10.953v.816A4.68,4.68,0,0,0,510.238,1296.154Zm2.182-9.765v.816a9.12,9.12,0,1,0,0,18.24v.816a9.936,9.936,0,1,1,0-19.872Zm-2,24.366a14.329,14.329,0,1,1,0-28.657v.816a13.513,13.513,0,1,0,0,27.025Z" transform="translate(-496.001 -1281.997)"/>
</svg>
