<?xml version="1.0" encoding="iso-8859-1"?>
<!-- Generator: Adobe Illustrator 19.0.0, SVG Export Plug-In . SVG Version: 6.00 Build 0)  -->
<svg version="1.1" id="Capa_1" xmlns="http://www.w3.org/2000/svg" xmlns:xlink="http://www.w3.org/1999/xlink" x="0px" y="0px"
	 viewBox="0 0 512 512" style="enable-background:new 0 0 512 512;" xml:space="preserve">
<path style="fill:#59C9FF;" d="M256,512c-3.044,0-6.087-0.924-8.688-2.772l-122.673-87.163C78.528,389.303,51,335.973,51,279.408
	V105c0-5.797,3.34-11.075,8.579-13.556l190-90c4.064-1.925,8.777-1.925,12.842,0l190,90C457.66,93.925,461,99.203,461,105v174.409
	c0,56.565-27.528,109.895-73.639,142.657l-122.673,87.162C262.087,511.075,259.044,512,256,512z"/>
<path style="fill:#4BA9EF;" d="M452.421,91.444l-190-90C260.389,0.481,258.194,0,256,0v512c3.044,0,6.087-0.924,8.688-2.772
	l122.673-87.162C433.472,389.303,461,335.973,461,279.408V105C461,99.203,457.66,93.925,452.421,91.444z"/>
<path style="fill:#FFF35D;" d="M233.331,342.657c-5.287,0-10.184-2.783-12.888-7.326l-40-67.175
	c-4.239-7.118-1.904-16.324,5.213-20.563c7.121-4.24,16.325-1.903,20.563,5.214l27.112,45.531l72.45-121.671
	c4.238-7.117,13.443-9.453,20.563-5.214c7.117,4.238,9.452,13.444,5.213,20.563l-85.338,143.315
	C243.515,339.874,238.618,342.657,233.331,342.657z"/>
<path style="fill:#FFDC4C;" d="M326.344,171.454c-7.119-4.239-16.324-1.903-20.563,5.214L256,260.269v58.636l75.557-126.889
	C335.796,184.898,333.461,175.692,326.344,171.454z"/>
<g>
</g>
<g>
</g>
<g>
</g>
<g>
</g>
<g>
</g>
<g>
</g>
<g>
</g>
<g>
</g>
<g>
</g>
<g>
</g>
<g>
</g>
<g>
</g>
<g>
</g>
<g>
</g>
<g>
</g>
</svg>
