<?xml version="1.0" encoding="iso-8859-1"?>
<!-- Generator: Adobe Illustrator 19.0.0, SVG Export Plug-In . SVG Version: 6.00 Build 0)  -->
<svg xmlns="http://www.w3.org/2000/svg" xmlns:xlink="http://www.w3.org/1999/xlink" version="1.1" id="Capa_1" x="0px" y="0px" viewBox="0 0 496 496" style="enable-background:new 0 0 496 496;" xml:space="preserve" fill="#8795a1">
<g>
	<g>
		<g>
			<path d="M288,0C173.312,0,80,93.312,80,208c0,42.208,12.672,81.496,34.36,114.328L104,332.688l-18.344-18.344l-11.312,11.312     L92.688,344l-80.4,80.4C4.36,432.328,0,442.856,0,454.056C0,477.184,18.816,496,41.944,496c11.2,0,21.736-4.36,29.656-12.288     l80.4-80.4l18.344,18.344l11.312-11.312L163.312,392l10.36-10.36C206.504,403.328,245.792,416,288,416     c114.688,0,208-93.312,208-208S402.688,0,288,0z M60.288,472.4c-4.904,4.904-11.416,7.6-18.344,7.6     C27.64,480,16,468.36,16,454.056c0-6.928,2.696-13.44,7.6-18.344l80.4-80.4L140.688,392L60.288,472.4z M152,380.688L115.312,344     l8.512-8.512c10.664,13.696,22.992,26.024,36.688,36.688L152,380.688z M288,400c-105.864,0-192-86.136-192-192S182.136,16,288,16     s192,86.136,192,192S393.864,400,288,400z"/>
			<path d="M422.824,294.2l13.472,8.632C454.416,274.544,464,241.752,464,208c0-97.048-78.952-176-176-176s-176,78.952-176,176     s78.952,176,176,176c52.72,0,102.216-23.344,135.808-64.04l-12.344-10.184c-12.36,14.984-27.128,27.328-43.464,36.776V304     c0-32.512-19.52-60.504-47.44-73c12.392-7.368,22.072-18.768,27.24-32.4c8.808-4.344,18.28-6.6,28.2-6.6     c35.288,0,64,28.712,64,64v1.76C435.832,270.52,430.136,282.784,422.824,294.2z M288,48c26.336,0,51.144,6.512,73.072,17.832     c-24.624,5.92-43.72,26.072-48.072,51.264c-7.688-3.28-16.136-5.096-25-5.096s-17.312,1.816-25,5.096     c-4.352-25.192-23.448-45.344-48.072-51.264C236.856,54.512,261.664,48,288,48z M152.304,123.632     c10.304-16.496,23.48-30.96,38.888-42.72c29.48-5.528,55.624,16.792,56.704,45.288c-12.928,10.432-21.736,25.752-23.544,43.144     C217,173.68,208.592,176,200,176c-26.472,0-48-21.528-48-48C152,126.52,152.16,125.072,152.304,123.632z M128,208     c0-20.952,4.16-40.92,11.512-59.272c4.976,14.464,14.976,26.568,27.92,34.272c-16.816,7.536-30.544,20.696-38.824,37.088     C128.312,216.08,128,212.08,128,208z M208,346.352c-33.712-19.576-59.664-51.016-72-88.656V256c0-35.288,28.712-64,64-64     c9.92,0,19.392,2.256,28.2,6.592c5.168,13.64,14.848,25.04,27.24,32.4C227.52,243.496,208,271.488,208,304V346.352z M352,304     v50.624C332.08,363.32,310.368,368,288,368c-22.76,0-44.384-4.848-64-13.456V304c0-35.288,28.712-64,64-64     C323.288,240,352,268.712,352,304z M288,224c-26.472,0-48-21.528-48-48s21.528-48,48-48s48,21.528,48,48S314.472,224,288,224z      M351.648,169.344c-1.808-17.392-10.624-32.712-23.544-43.144c1.072-28.496,27.168-50.824,56.704-45.288     c15.408,11.76,28.592,26.216,38.888,42.72C423.84,125.072,424,126.52,424,128c0,26.472-21.528,48-48,48     C367.408,176,359,173.68,351.648,169.344z M408.56,183c12.952-7.696,22.952-19.808,27.92-34.272     C443.84,167.08,448,187.048,448,208c0,4.128-0.184,8.232-0.496,12.328C439.232,203.824,425.464,190.568,408.56,183z"/>
		</g>
	</g>
</g>
<g>
</g>
<g>
</g>
<g>
</g>
<g>
</g>
<g>
</g>
<g>
</g>
<g>
</g>
<g>
</g>
<g>
</g>
<g>
</g>
<g>
</g>
<g>
</g>
<g>
</g>
<g>
</g>
<g>
</g>
</svg>
